{
  "theme": "moonstone",
  "accentHue": 201,
  "accentSat": 17,
  "lightStyle": "minimal-light-contrast",
  "darkStyle": "minimal-dark-black",
  "lightScheme": "minimal-things-light",
  "darkScheme": "minimal-atom-dark",
  "uiFont": "-apple-system,BlinkMacSystemFont,\"Segoe UI Emoji\",\"Segoe UI\",Roboto,Oxygen-Sans,Ubuntu,Cantarell,sans-serif",
  "textFont": "-apple-system,BlinkMacSystemFont,\"Segoe UI Emoji\",\"Segoe UI\",Roboto,Oxygen-Sans,Ubuntu,Cantarell,sans-serif",
  "editorFont": "-apple-system,BlinkMacSystemFont,\"Segoe UI Emoji\",\"Segoe UI\",Roboto,Oxygen-Sans,Ubuntu,Cantarell,sans-serif",
  "monoFont": "Menlo,SFMono-Regular,Consolas,Roboto Mono,monospace",
  "lineHeight": 1.5,
  "lineWidth": 40,
  "lineWidthWide": 50,
  "maxWidth": 88,
  "trimCols": true,
  "maxColWidth": "18em",
  "textNormal": 16,
  "textSmall": 13,
  "imgGrid": false,
  "imgWidth": "img-default-width",
  "tableWidth": "table-default-width",
  "iframeWidth": "iframe-default-width",
  "colorfulHeadings": false,
  "minimalIcons": true,
  "colorfulActiveStates": false,
  "fancyCursor": true,
  "frostedSidebar": true,
  "trimNames": true,
  "labeledNav": false,
  "fullWidthMedia": true,
  "bordersToggle": true,
  "bordersTitle": false,
  "minimalStatus": true,
  "focusMode": false,
  "underlineInternal": true,
  "underlineExternal": true,
  "useSystemTheme": false,
  "folding": false
}